info face="Calibri" size=50 bold=0 italic=0 charset="" unicode=0 stretchH=100 smooth=1 aa=1 padding=0,0,0,0 spacing=0,0
common lineHeight=63 base=50 scaleW=320 scaleH=320 pages=1 packed=0
page id=0 file="Calibri.png"
chars count=95
char id=32 x=132 y=40 width=0 height=0 xoffset=0 yoffset=48 xadvance=12 page=0 chnl=0
char id=33 x=190 y=254 width=8 height=36 xoffset=7 yoffset=14 xadvance=17 page=0 chnl=0
char id=34 x=138 y=292 width=16 height=16 xoffset=4 yoffset=12 xadvance=21 page=0 chnl=0
char id=35 x=60 y=218 width=26 height=34 xoffset=1 yoffset=16 xadvance=25 page=0 chnl=0
char id=36 x=2 y=46 width=24 height=46 xoffset=3 yoffset=9 xadvance=26 page=0 chnl=0
char id=37 x=170 y=2 width=36 height=36 xoffset=2 yoffset=14 xadvance=36 page=0 chnl=0
char id=38 x=132 y=2 width=36 height=36 xoffset=0 yoffset=14 xadvance=35 page=0 chnl=0
char id=39 x=224 y=178 width=8 height=16 xoffset=4 yoffset=12 xadvance=12 page=0 chnl=0
char id=40 x=156 y=222 width=12 height=46 xoffset=4 yoffset=12 xadvance=16 page=0 chnl=0
char id=41 x=138 y=244 width=12 height=46 xoffset=3 yoffset=12 xadvance=16 page=0 chnl=0
char id=42 x=112 y=294 width=20 height=22 xoffset=4 yoffset=11 xadvance=25 page=0 chnl=0
char id=43 x=214 y=46 width=24 height=26 xoffset=2 yoffset=21 xadvance=25 page=0 chnl=0
char id=44 x=190 y=292 width=12 height=16 xoffset=2 yoffset=41 xadvance=13 page=0 chnl=0
char id=45 x=78 y=38 width=14 height=6 xoffset=2 yoffset=33 xadvance=16 page=0 chnl=0
char id=46 x=2 y=308 width=8 height=8 xoffset=4 yoffset=42 xadvance=13 page=0 chnl=0
char id=47 x=2 y=142 width=22 height=46 xoffset=1 yoffset=10 xadvance=20 page=0 chnl=0
char id=48 x=218 y=74 width=24 height=36 xoffset=2 yoffset=14 xadvance=26 page=0 chnl=0
char id=49 x=138 y=112 width=22 height=34 xoffset=5 yoffset=16 xadvance=26 page=0 chnl=0
char id=50 x=112 y=220 width=22 height=36 xoffset=3 yoffset=14 xadvance=26 page=0 chnl=0
char id=51 x=88 y=268 width=22 height=36 xoffset=3 yoffset=14 xadvance=26 page=0 chnl=0
char id=52 x=60 y=182 width=26 height=34 xoffset=2 yoffset=16 xadvance=26 page=0 chnl=0
char id=53 x=88 y=230 width=22 height=36 xoffset=3 yoffset=14 xadvance=26 page=0 chnl=0
char id=54 x=192 y=74 width=24 height=36 xoffset=3 yoffset=14 xadvance=26 page=0 chnl=0
char id=55 x=112 y=184 width=24 height=34 xoffset=3 yoffset=16 xadvance=26 page=0 chnl=0
char id=56 x=166 y=74 width=24 height=36 xoffset=3 yoffset=14 xadvance=26 page=0 chnl=0
char id=57 x=140 y=74 width=24 height=36 xoffset=3 yoffset=14 xadvance=26 page=0 chnl=0
char id=58 x=282 y=148 width=8 height=26 xoffset=5 yoffset=24 xadvance=14 page=0 chnl=0
char id=59 x=304 y=112 width=10 height=32 xoffset=2 yoffset=25 xadvance=14 page=0 chnl=0
char id=60 x=188 y=46 width=24 height=26 xoffset=2 yoffset=21 xadvance=25 page=0 chnl=0
char id=61 x=256 y=148 width=24 height=16 xoffset=3 yoffset=26 xadvance=25 page=0 chnl=0
char id=62 x=162 y=46 width=24 height=26 xoffset=3 yoffset=21 xadvance=25 page=0 chnl=0
char id=63 x=296 y=74 width=20 height=36 xoffset=4 yoffset=14 xadvance=24 page=0 chnl=0
char id=64 x=2 y=2 width=44 height=42 xoffset=0 yoffset=13 xadvance=45 page=0 chnl=0
char id=65 x=28 y=46 width=30 height=34 xoffset=1 yoffset=16 xadvance=29 page=0 chnl=0
char id=66 x=112 y=148 width=24 height=34 xoffset=5 yoffset=16 xadvance=28 page=0 chnl=0
char id=67 x=28 y=194 width=26 height=36 xoffset=3 yoffset=14 xadvance=27 page=0 chnl=0
char id=68 x=28 y=120 width=28 height=34 xoffset=5 yoffset=16 xadvance=31 page=0 chnl=0
char id=69 x=206 y=112 width=20 height=34 xoffset=5 yoffset=16 xadvance=25 page=0 chnl=0
char id=70 x=184 y=112 width=20 height=34 xoffset=5 yoffset=16 xadvance=23 page=0 chnl=0
char id=71 x=28 y=82 width=28 height=36 xoffset=3 yoffset=14 xadvance=32 page=0 chnl=0
char id=72 x=60 y=146 width=26 height=34 xoffset=5 yoffset=16 xadvance=32 page=0 chnl=0
char id=73 x=214 y=178 width=8 height=34 xoffset=5 yoffset=16 xadvance=13 page=0 chnl=0
char id=74 x=190 y=178 width=14 height=36 xoffset=1 yoffset=14 xadvance=16 page=0 chnl=0
char id=75 x=112 y=112 width=24 height=34 xoffset=5 yoffset=16 xadvance=26 page=0 chnl=0
char id=76 x=162 y=112 width=20 height=34 xoffset=5 yoffset=16 xadvance=22 page=0 chnl=0
char id=77 x=208 y=2 width=38 height=34 xoffset=5 yoffset=16 xadvance=43 page=0 chnl=0
char id=78 x=60 y=110 width=26 height=34 xoffset=5 yoffset=16 xadvance=33 page=0 chnl=0
char id=79 x=248 y=2 width=32 height=36 xoffset=3 yoffset=14 xadvance=34 page=0 chnl=0
char id=80 x=112 y=258 width=22 height=34 xoffset=5 yoffset=16 xadvance=26 page=0 chnl=0
char id=81 x=94 y=2 width=36 height=40 xoffset=3 yoffset=14 xadvance=34 page=0 chnl=0
char id=82 x=270 y=74 width=24 height=34 xoffset=5 yoffset=16 xadvance=28 page=0 chnl=0
char id=83 x=88 y=192 width=22 height=36 xoffset=2 yoffset=14 xadvance=23 page=0 chnl=0
char id=84 x=60 y=74 width=26 height=34 xoffset=1 yoffset=16 xadvance=25 page=0 chnl=0
char id=85 x=28 y=156 width=26 height=36 xoffset=5 yoffset=14 xadvance=33 page=0 chnl=0
char id=86 x=282 y=2 width=30 height=34 xoffset=1 yoffset=16 xadvance=29 page=0 chnl=0
char id=87 x=48 y=2 width=44 height=34 xoffset=2 yoffset=16 xadvance=45 page=0 chnl=0
char id=88 x=28 y=268 width=26 height=34 xoffset=2 yoffset=16 xadvance=26 page=0 chnl=0
char id=89 x=28 y=232 width=26 height=34 xoffset=1 yoffset=16 xadvance=25 page=0 chnl=0
char id=90 x=244 y=74 width=24 height=34 xoffset=2 yoffset=16 xadvance=24 page=0 chnl=0
char id=91 x=176 y=224 width=12 height=44 xoffset=5 yoffset=13 xadvance=16 page=0 chnl=0
char id=92 x=2 y=94 width=22 height=46 xoffset=1 yoffset=10 xadvance=20 page=0 chnl=0
char id=93 x=176 y=178 width=12 height=44 xoffset=3 yoffset=13 xadvance=16 page=0 chnl=0
char id=94 x=60 y=292 width=22 height=22 xoffset=3 yoffset=14 xadvance=25 page=0 chnl=0
char id=95 x=48 y=38 width=28 height=6 xoffset=0 yoffset=52 xadvance=25 page=0 chnl=0
char id=96 x=292 y=148 width=14 height=14 xoffset=0 yoffset=12 xadvance=15 page=0 chnl=0
char id=97 x=280 y=112 width=22 height=28 xoffset=3 yoffset=22 xadvance=24 page=0 chnl=0
char id=98 x=2 y=230 width=24 height=38 xoffset=4 yoffset=12 xadvance=27 page=0 chnl=0
char id=99 x=176 y=148 width=20 height=28 xoffset=3 yoffset=22 xadvance=22 page=0 chnl=0
char id=100 x=2 y=190 width=24 height=38 xoffset=3 yoffset=12 xadvance=27 page=0 chnl=0
char id=101 x=254 y=112 width=24 height=28 xoffset=3 yoffset=22 xadvance=25 page=0 chnl=0
char id=102 x=156 y=148 width=18 height=38 xoffset=1 yoffset=12 xadvance=16 page=0 chnl=0
char id=103 x=114 y=74 width=24 height=36 xoffset=2 yoffset=22 xadvance=24 page=0 chnl=0
char id=104 x=88 y=152 width=22 height=38 xoffset=4 yoffset=12 xadvance=27 page=0 chnl=0
char id=105 x=190 y=216 width=8 height=36 xoffset=4 yoffset=14 xadvance=12 page=0 chnl=0
char id=106 x=156 y=270 width=12 height=44 xoffset=-1 yoffset=14 xadvance=12 page=0 chnl=0
char id=107 x=88 y=112 width=22 height=38 xoffset=4 yoffset=12 xadvance=23 page=0 chnl=0
char id=108 x=176 y=270 width=8 height=38 xoffset=4 yoffset=12 xadvance=12 page=0 chnl=0
char id=109 x=98 y=46 width=36 height=26 xoffset=4 yoffset=24 xadvance=40 page=0 chnl=0
char id=110 x=288 y=46 width=22 height=26 xoffset=4 yoffset=24 xadvance=27 page=0 chnl=0
char id=111 x=228 y=112 width=24 height=28 xoffset=3 yoffset=22 xadvance=27 page=0 chnl=0
char id=112 x=88 y=74 width=24 height=36 xoffset=4 yoffset=22 xadvance=27 page=0 chnl=0
char id=113 x=60 y=254 width=24 height=36 xoffset=3 yoffset=22 xadvance=27 page=0 chnl=0
char id=114 x=238 y=148 width=16 height=26 xoffset=4 yoffset=24 xadvance=18 page=0 chnl=0
char id=115 x=198 y=148 width=18 height=28 xoffset=2 yoffset=22 xadvance=20 page=0 chnl=0
char id=116 x=156 y=188 width=18 height=32 xoffset=1 yoffset=18 xadvance=17 page=0 chnl=0
char id=117 x=264 y=46 width=22 height=26 xoffset=4 yoffset=24 xadvance=27 page=0 chnl=0
char id=118 x=136 y=46 width=24 height=26 xoffset=1 yoffset=24 xadvance=23 page=0 chnl=0
char id=119 x=60 y=46 width=36 height=26 xoffset=2 yoffset=24 xadvance=36 page=0 chnl=0
char id=120 x=240 y=46 width=22 height=26 xoffset=2 yoffset=24 xadvance=22 page=0 chnl=0
char id=121 x=2 y=270 width=24 height=36 xoffset=1 yoffset=22 xadvance=23 page=0 chnl=0
char id=122 x=218 y=148 width=18 height=26 xoffset=3 yoffset=24 xadvance=20 page=0 chnl=0
char id=123 x=138 y=196 width=16 height=46 xoffset=3 yoffset=11 xadvance=16 page=0 chnl=0
char id=124 x=206 y=178 width=6 height=46 xoffset=10 yoffset=12 xadvance=24 page=0 chnl=0
char id=125 x=138 y=148 width=16 height=46 xoffset=3 yoffset=11 xadvance=16 page=0 chnl=0
char id=126 x=28 y=304 width=26 height=12 xoffset=2 yoffset=19 xadvance=25 page=0 chnl=0
kernings count=223
kerning first=66 second=84 amount=-1
kerning first=80 second=97 amount=-1
kerning first=80 second=99 amount=-1
kerning first=66 second=88 amount=-1
kerning first=66 second=89 amount=-1
kerning first=44 second=116 amount=-1
kerning first=76 second=71 amount=-1
kerning first=88 second=113 amount=-1
kerning first=76 second=79 amount=-1
kerning first=88 second=118 amount=-1
kerning first=88 second=119 amount=-1
kerning first=102 second=111 amount=-1
kerning first=84 second=97 amount=-3
kerning first=84 second=99 amount=-4
kerning first=102 second=113 amount=-1
kerning first=86 second=65 amount=-2
kerning first=122 second=99 amount=-1
kerning first=75 second=118 amount=-2
kerning first=75 second=119 amount=-2
kerning first=122 second=111 amount=-1
kerning first=84 second=110 amount=-3
kerning first=84 second=111 amount=-4
kerning first=89 second=120 amount=-1
kerning first=84 second=112 amount=-3
kerning first=89 second=121 amount=-1
kerning first=84 second=113 amount=-3
kerning first=122 second=113 amount=-1
kerning first=89 second=122 amount=-2
kerning first=84 second=114 amount=-3
kerning first=84 second=115 amount=-3
kerning first=84 second=117 amount=-3
kerning first=81 second=84 amount=-1
kerning first=84 second=118 amount=-2
kerning first=84 second=119 amount=-2
kerning first=81 second=89 amount=-1
kerning first=44 second=84 amount=-3
kerning first=44 second=86 amount=-3
kerning first=44 second=87 amount=-3
kerning first=76 second=121 amount=-1
kerning first=44 second=89 amount=-3
kerning first=98 second=120 amount=-1
kerning first=87 second=59 amount=-3
kerning first=80 second=111 amount=-1
kerning first=89 second=81 amount=-1
kerning first=80 second=44 amount=-6
kerning first=80 second=46 amount=-6
kerning first=80 second=47 amount=-2
kerning first=107 second=111 amount=-1
kerning first=107 second=113 amount=-1
kerning first=76 second=81 amount=-1
kerning first=76 second=84 amount=-3
kerning first=76 second=85 amount=-1
kerning first=76 second=86 amount=-3
kerning first=76 second=87 amount=-2
kerning first=76 second=89 amount=-4
kerning first=84 second=44 amount=-5
kerning first=84 second=46 amount=-4
kerning first=84 second=47 amount=-2
kerning first=112 second=120 amount=-1
kerning first=86 second=74 amount=-1
kerning first=86 second=100 amount=-2
kerning first=86 second=101 amount=-2
kerning first=86 second=103 amount=-2
kerning first=69 second=118 amount=-1
kerning first=86 second=109 amount=-1
kerning first=118 second=44 amount=-3
kerning first=118 second=46 amount=-4
kerning first=87 second=110 amount=-1
kerning first=87 second=111 amount=-2
kerning first=65 second=116 amount=-1
kerning first=87 second=112 amount=-1
kerning first=87 second=113 amount=-1
kerning first=87 second=114 amount=-1
kerning first=87 second=115 amount=-1
kerning first=79 second=44 amount=-1
kerning first=87 second=117 amount=-1
kerning first=87 second=65 amount=-2
kerning first=70 second=65 amount=-2
kerning first=89 second=97 amount=-3
kerning first=89 second=99 amount=-3
kerning first=88 second=121 amount=-1
kerning first=84 second=58 amount=-3
kerning first=84 second=59 amount=-2
kerning first=102 second=100 amount=-1
kerning first=102 second=101 amount=-1
kerning first=75 second=121 amount=-2
kerning first=102 second=103 amount=-1
kerning first=65 second=63 amount=-1
kerning first=84 second=120 amount=-2
kerning first=84 second=121 amount=-2
kerning first=84 second=122 amount=-3
kerning first=81 second=44 amount=2
kerning first=81 second=47 amount=3
kerning first=122 second=100 amount=-1
kerning first=89 second=100 amount=-3
kerning first=89 second=101 amount=-3
kerning first=122 second=101 amount=-1
kerning first=120 second=111 amount=-1
kerning first=89 second=102 amount=-1
kerning first=89 second=103 amount=-3
kerning first=120 second=113 amount=-1
kerning first=89 second=106 amount=-1
kerning first=89 second=109 amount=-2
kerning first=87 second=74 amount=-2
kerning first=70 second=74 amount=-2
kerning first=89 second=44 amount=-6
kerning first=89 second=46 amount=-5
kerning first=89 second=47 amount=-3
kerning first=46 second=116 amount=-1
kerning first=46 second=118 amount=-1
kerning first=46 second=119 amount=-1
kerning first=80 second=65 amount=-3
kerning first=114 second=97 amount=-1
kerning first=107 second=100 amount=-1
kerning first=107 second=101 amount=-1
kerning first=103 second=47 amount=1
kerning first=84 second=65 amount=-3
kerning first=84 second=67 amount=-1
kerning first=86 second=97 amount=-2
kerning first=69 second=121 amount=-1
kerning first=47 second=65 amount=-1
kerning first=86 second=99 amount=-2
kerning first=86 second=110 amount=-1
kerning first=86 second=111 amount=-2
kerning first=81 second=103 amount=1
kerning first=86 second=112 amount=-1
kerning first=86 second=113 amount=-2
kerning first=86 second=114 amount=-1
kerning first=81 second=106 amount=1
kerning first=86 second=115 amount=-2
kerning first=86 second=117 amount=-1
kerning first=88 second=67 amount=-1
kerning first=107 second=99 amount=-1
kerning first=102 second=99 amount=-1
kerning first=81 second=59 amount=1
kerning first=75 second=67 amount=-1
kerning first=65 second=121 amount=-1
kerning first=82 second=111 amount=-1
kerning first=87 second=121 amount=-1
kerning first=46 second=84 amount=-3
kerning first=46 second=86 amount=-3
kerning first=46 second=87 amount=-3
kerning first=46 second=89 amount=-4
kerning first=89 second=58 amount=-3
kerning first=89 second=59 amount=-3
kerning first=80 second=74 amount=-3
kerning first=88 second=100 amount=-1
kerning first=84 second=71 amount=-1
kerning first=84 second=74 amount=-1
kerning first=84 second=79 amount=-1
kerning first=86 second=44 amount=-4
kerning first=86 second=46 amount=-5
kerning first=86 second=47 amount=-2
kerning first=88 second=71 amount=-1
kerning first=88 second=79 amount=-1
kerning first=65 second=84 amount=-3
kerning first=65 second=86 amount=-2
kerning first=65 second=87 amount=-1
kerning first=65 second=89 amount=-3
kerning first=40 second=106 amount=1
kerning first=84 second=100 amount=-3
kerning first=84 second=101 amount=-4
kerning first=89 second=110 amount=-2
kerning first=89 second=111 amount=-3
kerning first=84 second=103 amount=-3
kerning first=89 second=112 amount=-2
kerning first=89 second=113 amount=-3
kerning first=89 second=114 amount=-2
kerning first=89 second=115 amount=-2
kerning first=89 second=116 amount=-1
kerning first=89 second=117 amount=-2
kerning first=84 second=109 amount=-3
kerning first=75 second=71 amount=-1
kerning first=89 second=118 amount=-1
kerning first=89 second=119 amount=-1
kerning first=75 second=79 amount=-2
kerning first=120 second=100 amount=-1
kerning first=120 second=101 amount=-1
kerning first=85 second=65 amount=-1
kerning first=76 second=118 amount=-1
kerning first=76 second=119 amount=-1
kerning first=121 second=44 amount=-3
kerning first=121 second=46 amount=-3
kerning first=87 second=97 amount=-1
kerning first=87 second=99 amount=-1
kerning first=46 second=121 amount=-1
kerning first=70 second=97 amount=-1
kerning first=80 second=101 amount=-1
kerning first=89 second=65 amount=-3
kerning first=89 second=67 amount=-1
kerning first=119 second=44 amount=-4
kerning first=68 second=44 amount=-1
kerning first=119 second=46 amount=-3
kerning first=68 second=46 amount=-1
kerning first=120 second=99 amount=-1
kerning first=114 second=44 amount=-4
kerning first=114 second=46 amount=-5
kerning first=84 second=81 amount=-1
kerning first=86 second=58 amount=-1
kerning first=86 second=59 amount=-2
kerning first=86 second=122 amount=-2
kerning first=69 second=102 amount=-1
kerning first=88 second=81 amount=-1
kerning first=90 second=118 amount=-1
kerning first=81 second=74 amount=1
kerning first=102 second=44 amount=-3
kerning first=102 second=46 amount=-3
kerning first=75 second=81 amount=-2
kerning first=87 second=100 amount=-1
kerning first=87 second=101 amount=-1
kerning first=87 second=103 amount=-1
kerning first=79 second=84 amount=-1
kerning first=79 second=88 amount=-1
kerning first=79 second=89 amount=-1
kerning first=87 second=44 amount=-5
kerning first=87 second=109 amount=-1
kerning first=87 second=46 amount=-5
kerning first=70 second=44 amount=-4
kerning first=70 second=46 amount=-4
kerning first=70 second=47 amount=-1
kerning first=89 second=71 amount=-1
kerning first=89 second=74 amount=-2
kerning first=89 second=79 amount=-1
